<svg xmlns="http://www.w3.org/2000/svg" width="26" height="19.5" viewBox="0 0 26 19.5">
  <g id="Group_1413" data-name="Group 1413" transform="translate(-291 -680)">
    <g id="Group_1411" data-name="Group 1411" transform="translate(0 -49)">
      <g id="Group_1406" data-name="Group 1406" transform="translate(293.879 737.401)">
        <ellipse id="Ellipse_284" data-name="Ellipse 284" cx="1.852" cy="1.852" rx="1.852" ry="1.852" transform="translate(1.975)" fill="none" stroke="#5dff00" stroke-miterlimit="10" stroke-width="2"/>
        <path id="Path_11335" data-name="Path 11335" d="M982.227,762.305a3.827,3.827,0,0,0-7.654,0" transform="translate(-974.573 -753.559)" fill="none" stroke="#5dff00" stroke-linecap="round" stroke-linejoin="round" stroke-width="2"/>
      </g>
      <path id="Path_11901" data-name="Path 11901" d="M962.6,697.438V681.386a1.4,1.4,0,0,1,1.336-1.448h21.328a1.4,1.4,0,0,1,1.336,1.448v14.6a1.4,1.4,0,0,1-1.336,1.448h-11.03" transform="translate(-670.597 50.062)" fill="none" stroke="#5dff00" stroke-linecap="round" stroke-linejoin="round" stroke-width="2"/>
      <g id="Group_1410" data-name="Group 1410" transform="translate(304.883 732.174)">
        <rect id="Rectangle_175" data-name="Rectangle 175" width="1.695" height="9.29" rx="0.848" transform="translate(0 2.509)" fill="#5dff00"/>
        <rect id="Rectangle_176" data-name="Rectangle 176" width="1.695" height="6.601" rx="0.848" transform="translate(3.473 5.197)" fill="#5dff00"/>
        <rect id="Rectangle_177" data-name="Rectangle 177" width="1.695" height="11.798" rx="0.848" transform="translate(6.947)" fill="#5dff00"/>
      </g>
    </g>
  </g>
</svg>
