<svg xmlns="http://www.w3.org/2000/svg" width="44" height="39.123" viewBox="0 0 44 39.123">
  <g id="Group_1536" data-name="Group 1536" transform="translate(-1401 -3170.577)">
    <g id="Group_1404" data-name="Group 1404" transform="translate(1027 2650)">
      <g id="Group_1400" data-name="Group 1400" transform="translate(-125.1 -1228.923)">
        <path id="Path_11264" data-name="Path 11264" d="M567.766,1750.5h-8.535a8.634,8.634,0,0,0-8.631,8.631h0v3.369a8.634,8.634,0,0,0,8.631,8.631h7.925l2.7,2.7v-2.952a8.616,8.616,0,0,0,6.545-8.374v-3.369a8.613,8.613,0,0,0-8.631-8.631Z" transform="translate(-34.297 0)" fill="none" stroke="#fff" stroke-linecap="round" stroke-linejoin="round" stroke-width="2"/>
        <path id="Path_11265" data-name="Path 11265" d="M512.389,1792h-7.476a4.806,4.806,0,0,0-4.813,4.813v10.973a4.806,4.806,0,0,0,4.813,4.813h.545v3.208l3.209-3.208H521.02a4.806,4.806,0,0,0,4.813-4.813v-4.877" transform="translate(0 -28.184)" fill="none" stroke="#fff" stroke-linecap="round" stroke-linejoin="round" stroke-width="2"/>
        <path id="Path_14" data-name="Path 14" d="M535.873,1808.757H537V1806.9a12.461,12.461,0,0,0-1.6-.1,2.513,2.513,0,0,0-2.7,2.76v1.54h-1.8v2.086h1.8v5.39h2.182v-5.39h1.8l.257-2.086h-2.086v-1.348C534.847,1809.174,535.007,1808.757,535.873,1808.757Z" transform="translate(-20.918 -38.236)" fill="#fff"/>
        <g id="_Group_" data-name="&lt;Group&gt;" transform="translate(524.036 1756.949)">
          <path id="Path_15" data-name="Path 15" d="M606.3,1770.9Z" transform="translate(-596.161 -1770.804)" fill="#fff"/>
          <path id="Path_16" data-name="Path 16" d="M584.39,1771.787a1.694,1.694,0,0,1-.417.064v-.032a3.789,3.789,0,0,0,.834-.931.25.25,0,0,0,0-.16l-.674.289-.578.257h0a2.269,2.269,0,0,0-1.669-.674,2.025,2.025,0,0,0-2.15,1.893,2.5,2.5,0,0,0,.1.706h0a6.76,6.76,0,0,1-2.631-.77c-1.733-.866-1.829-1.476-1.829-1.476a2.367,2.367,0,0,0-.128,1.989,2.561,2.561,0,0,0,.77.9h0a1.925,1.925,0,0,1-.545-.1,1.053,1.053,0,0,1-.385-.193,1.791,1.791,0,0,0,.77,1.669,3.078,3.078,0,0,0,.963.513l-.963.032c-.064.963,1.989,1.508,1.989,1.508h0a3.4,3.4,0,0,1-2.021.738,4.313,4.313,0,0,1-1.123-.161,5.238,5.238,0,0,0,3.626,1.284c3.658-.193,5.711-3.337,5.807-6.417h0a4.152,4.152,0,0,0,.545-.449,3.513,3.513,0,0,0,.578-.8S584.614,1771.723,584.39,1771.787Z" transform="translate(-574.7 -1770.6)" fill="#fff"/>
          <path id="Path_17" data-name="Path 17" d="M606.2,1770.9Z" transform="translate(-596.093 -1770.804)" fill="#fff"/>
        </g>
      </g>
    </g>
  </g>
</svg>
